99
99
1
1
1
1
1
1
1
1
1
1
1
1
1
1
1
1
1
1
1
1
1
1
1
1
1
1
1
1
1
1
1
1
1
1
1
1
1
1
1
1
1
1
1
1
1
1
1
1
1
1
1
1
1
1
1
1
1
1
1
1
1
1
1
1
1
1
1
1
1
1
1.000000e-04
1.000000e-04
1.000000e-04
1.000000e-04
1.000000e-04
1.000000e-04
1.000000e-04
1.000000e-04
1.000000e-04
1.000000e-04
1.000000e-04
1
1
1
1
1
1
1
1
1
1
1
1
1
1
1
1
1
1
1
1
1
1
1
1
1
1
1
1
1
1
1
1
1
1
1
1
1
1
1
1
1
1
1
1
1
1
1
1
1
1
1
1
1
1
1
1
1
1
1
1
1
1
1
1
1
1
1
1
1
1
1
1
1
1
1
1
1
1
1
1
1
1
1
1
1
1
1
1
1.000000e-04
1.000000e-04
1.000000e-04
1.000000e-04
1.000000e-04
1.000000e-04
1.000000e-04
1.000000e-04
1.000000e-04
1.000000e-04
1.000000e-04
1
1
1
1
1
1
1
1
1
1
1
1
1
1
1
1
1
1
1
1
1
1
1
1
1
1
1
1
1
1
1
1
1
1
1
1
1
1
1
1
1
1
1
1
1
1
1
1
1
1
1
1
1
1
1
1
1
1
1
1
1
1
1
1
1
1
1
1
1
1
1
1
1
1
1
1
1
1
1
1
1
1
1
1
1
1
1
1
1.000000e-04
1.000000e-04
1.000000e-04
1.000000e-04
1.000000e-04
1.000000e-04
1.000000e-04
1.000000e-04
1.000000e-04
1.000000e-04
1.000000e-04
1
1
1
1
1
1
1
1
1
1
1
1
1
1
1
1
1
1
1
1
1
1
1
1
1
1
1
1
1
1
1
1
1
1
1
1
1
1
1
1
1
1
1
1
1
1
1
1
1
1
1
1
1
1
1
1
1
1
1
1
1
1
1
1
1
1
1
1
1
1
1
1
1
1
1
1
1
1
1
1
1
1
1
1
1
1
1
1
1.000000e-04
1.000000e-04
1.000000e-04
1.000000e-04
1.000000e-04
1.000000e-04
1.000000e-04
1.000000e-04
1.000000e-04
1.000000e-04
1.000000e-04
1
1
1
1
1
1
1
1
1
1
1
1
1
1
1
1
1
1
1
1
1
1
1
1
1
1
1
1
1
1
1
1
1
1
1
1
1
1
1
1
1
1
1
1
1
1
1
1
1
1
1
1
1
1
1
1
1
1
1
1
1
1
1
1
1
1
1
1
1
1
1
1
1
1
1
1
1
1
1
1
1
1
1
1
1
1
1
1
1.000000e-04
1.000000e-04
1.000000e-04
1.000000e-04
1.000000e-04
1.000000e-04
1.000000e-04
1.000000e-04
1.000000e-04
1.000000e-04
1.000000e-04
1
1
1
1
1
1
1
1
1
1
1
1
1
1
1
1
1
1
1
1
1
1
1
1
1
1
1
1
1
1
1
1
1
1
1
1
1
1
1
1
1
1
1
1
1
1
1
1
1
1
1
1
1
1
1
1
1
1
1
1
1
1
1
1
1
1
1
1
1
1
1
1
1
1
1
1
1
1
1
1
1
1
1
1
1
1
1
1
1.000000e-04
1.000000e-04
1.000000e-04
1.000000e-04
1.000000e-04
1.000000e-04
1.000000e-04
1.000000e-04
1.000000e-04
1.000000e-04
1.000000e-04
1
1
1
1
1
1
1
1
1
1
1
1
1
1
1
1
1
1
1
1
1
1
1
1
1
1
1
1
1
1
1
1
1
1
1
1
1
1
1
1
1
1
1
1
1
1
1
1
1
1
1
1
1
1
1
1
1
1
1
1
1
1
1
1
1
1
1
1
1
1
1
1
1
1
1
1
1
1
1
1
1
1
1
1
1
1
1
1
1.000000e-04
1.000000e-04
1.000000e-04
1.000000e-04
1.000000e-04
1.000000e-04
1.000000e-04
1.000000e-04
1.000000e-04
1.000000e-04
1.000000e-04
1
1
1
1
1
1
1
1
1
1
1
1
1
1
1
1
1
1
1
1
1
1
1
1
1
1
1
1
1
1
1
1
1
1
1
1
1
1
1
1
1
1
1
1
1
1
1
1
1
1
1
1
1
1
1
1
1
1
1
1
1
1
1
1
1
1
1
1
1
1
1
1
1
1
1
1
1
1
1
1
1
1
1
1
1
1
1
1
1.000000e-04
1.000000e-04
1.000000e-04
1.000000e-04
1.000000e-04
1.000000e-04
1.000000e-04
1.000000e-04
1.000000e-04
1.000000e-04
1.000000e-04
1
1
1
1
1
1
1
1
1
1
1
1
1
1
1
1
1
1
1
1
1
1
1
1
1
1
1
1
1
1
1
1
1
1
1
1
1
1
1
1
1
1
1
1
1
1
1
1
1
1
1
1
1
1
1
1
1
1
1
1
1
1
1
1
1
1
1
1
1
1
1
1
1
1
1
1
1
1
1
1
1
1
1
1
1
1
1
1
1.000000e-04
1.000000e-04
1.000000e-04
1.000000e-04
1.000000e-04
1.000000e-04
1.000000e-04
1.000000e-04
1.000000e-04
1.000000e-04
1.000000e-04
1
1
1
1
1
1
1
1
1
1
1
1
1
1
1
1
1
1
1
1
1
1
1
1
1
1
1
1
1
1
1
1
1
1
1
1
1
1
1
1
1
1
1
1
1
1
1
1
1
1
1
1
1
1
1
1
1
1
1
1
1
1
1
1
1
1
1
1
1
1
1
1
1
1
1
1
1
1
1
1
1
1
1
1
1
1
1
1
1.000000e-04
1.000000e-04
1.000000e-04
1.000000e-04
1.000000e-04
1.000000e-04
1.000000e-04
1.000000e-04
1.000000e-04
1.000000e-04
1.000000e-04
1
1
1
1
1
1
1
1
1
1
1
1
1
1
1
1
1
1
1
1
1
1
1
1
1
1
1
1
1
1
1
1
1
1
1
1
1
1
1
1
1
1
1
1
1
1
1
1
1
1
1
1
1
1
1
1
1
1
1
1
1
1
1
1
1
1
1
1
1
1
1
1
1
1
1
1
1
1
1
1
1
1
1
1
1
1
1
1
1.000000e-04
1.000000e-04
1.000000e-04
1.000000e-04
1.000000e-04
1.000000e-04
1.000000e-04
1.000000e-04
1.000000e-04
1.000000e-04
1.000000e-04
1
1
1
1
1
1
1
1
1
1
1
1
1
1
1
1
1
1
1
1
1
1
1
1
1
1
1
1
1
1
1
1
1
1
1
1
1
1
1
1
1
1
1
1
1
1
1
1
1
1
1
1
1
1
1
1
1
1
1
1
1
1
1
1
1
1
1
1
1
1
1
1
1
1
1
1
1
1
1
1
1
1
1
1
1
1
1
1
1.000000e-04
1.000000e-04
1.000000e-04
1.000000e-04
1.000000e-04
1.000000e-04
1.000000e-04
1.000000e-04
1.000000e-04
1.000000e-04
1.000000e-04
1
1
1
1
1
1
1
1
1
1
1
1
1
1
1
1
1
1
1
1
1
1
1
1
1
1
1
1
1
1
1
1
1
1
1
1
1
1
1
1
1
1
1
1
1
1
1
1
1
1
1
1
1
1
1
1
1
1
1
1
1
1
1
1
1
1
1
1
1
1
1
1
1
1
1
1
1
1
1
1
1
1
1
1
1
1
1
1
1.000000e-04
1.000000e-04
1.000000e-04
1.000000e-04
1.000000e-04
1.000000e-04
1.000000e-04
1.000000e-04
1.000000e-04
1.000000e-04
1.000000e-04
1
1
1
1
1
1
1
1
1
1
1
1
1
1
1
1
1
1
1
1
1
1
1
1
1
1
1
1
1
1
1
1
1
1
1
1
1
1
1
1
1
1
1
1
1
1
1
1
1
1
1
1
1
1
1
1
1
1
1
1
1
1
1
1
1
1
1
1
1
1
1
1
1
1
1
1
1
1
1
1
1
1
1
1
1
1
1
1
1.000000e-04
1.000000e-04
1.000000e-04
1.000000e-04
1.000000e-04
1.000000e-04
1.000000e-04
1.000000e-04
1.000000e-04
1.000000e-04
1.000000e-04
1
1
1
1
1
1
1
1
1
1
1
1
1
1
1
1
1
1
1
1
1
1
1
1
1
1
1
1
1
1
1
1
1
1
1
1
1
1
1
1
1
1
1
1
1
1
1
1
1
1
1
1
1
1
1
1
1
1
1
1
1
1
1
1
1
1
1
1
1
1
1
1
1
1
1
1
1
1
1
1
1
1
1
1
1
1
1
1
1.000000e-04
1.000000e-04
1.000000e-04
1.000000e-04
1.000000e-04
1.000000e-04
1.000000e-04
1.000000e-04
1.000000e-04
1.000000e-04
1.000000e-04
1
1
1
1
1
1
1
1
1
1
1
1
1
1
1
1
1
1
1
1
1
1
1
1
1
1
1
1
1
1
1
1
1
1
1
1
1
1
1
1
1
1
1
1
1
1
1
1
1
1
1
1
1
1
1
1
1
1
1
1
1
1
1
1
1
1
1
1
1
1
1
1
1
1
1
1
1
1
1
1
1
1
1
1
1
1
1
1
1.000000e-04
1.000000e-04
1.000000e-04
1.000000e-04
1.000000e-04
1.000000e-04
1.000000e-04
1.000000e-04
1.000000e-04
1.000000e-04
1.000000e-04
1
1
1
1
1
1
1
1
1
1
1
1
1
1
1
1
1
1
1
1
1
1
1
1
1
1
1
1
1
1
1
1
1
1
1
1
1
1
1
1
1
1
1
1
1
1
1
1
1
1
1
1
1
1
1
1
1
1
1
1
1
1
1
1
1
1
1
1
1
1
1
1
1
1
1
1
1
1
1
1
1
1
1
1
1
1
1
1
1.000000e-04
1.000000e-04
1.000000e-04
1.000000e-04
1.000000e-04
1.000000e-04
1.000000e-04
1.000000e-04
1.000000e-04
1.000000e-04
1.000000e-04
1
1
1
1
1
1
1
1
1
1
1
1
1
1
1
1
1
1
1
1
1
1
1
1
1
1
1
1
1
1
1
1
1
1
1
1
1
1
1
1
1
1
1
1
1
1
1
1
1
1
1
1
1
1
1
1
1
1
1
1
1
1
1
1
1
1
1
1
1
1
1
1
1
1
1
1
1
1
1
1
1
1
1
1
1
1
1
1
1.000000e-04
1.000000e-04
1.000000e-04
1.000000e-04
1.000000e-04
1.000000e-04
1.000000e-04
1.000000e-04
1.000000e-04
1.000000e-04
1.000000e-04
1
1
1
1
1
1
1
1
1
1
1
1
1
1
1
1
1
1
1
1
1
1
1
1
1
1
1
1
1
1
1
1
1
1
1
1
1
1
1
1
1
1
1
1
1
1
1
1
1
1
1
1
1
1
1
1
1
1
1
1
1
1
1
1
1
1
1
1
1
1
1
1
1
1
1
1
1
1
1
1
1
1
1
1
1
1
1
1
1.000000e-04
1.000000e-04
1.000000e-04
1.000000e-04
1.000000e-04
1.000000e-04
1.000000e-04
1.000000e-04
1.000000e-04
1.000000e-04
1.000000e-04
1
1
1
1
1
1
1
1
1
1
1
1
1
1
1
1
1
1
1
1
1
1
1
1
1
1
1
1
1
1
1
1
1
1
1
1
1
1
1
1
1
1
1
1
1
1
1
1
1
1
1
1
1
1
1
1
1
1
1
1
1
1
1
1
1
1
1
1
1
1
1
1
1
1
1
1
1
1
1
1
1
1
1
1
1
1
1
1
1.000000e-04
1.000000e-04
1.000000e-04
1.000000e-04
1.000000e-04
1.000000e-04
1.000000e-04
1.000000e-04
1.000000e-04
1.000000e-04
1.000000e-04
1
1
1
1
1
1
1
1
1
1
1
1
1
1
1
1
1
1
1
1
1
1
1
1
1
1
1
1
1
1
1
1
1
1
1
1
1
1
1
1
1
1
1
1
1
1
1
1
1
1
1
1
1
1
1
1
1
1
1
1
1
1
1
1
1
1
1
1
1
1
1
1
1
1
1
1
1
1
1
1
1
1
1
1
1
1
1
1
1.000000e-04
1.000000e-04
1.000000e-04
1.000000e-04
1.000000e-04
1.000000e-04
1.000000e-04
1.000000e-04
1.000000e-04
1.000000e-04
1.000000e-04
1
1
1
1
1
1
1
1
1
1
1
1
1
1
1
1
1
1
1
1
1
1
1
1
1
1
1
1
1
1
1
1
1
1
1
1
1
1
1
1
1
1
1
1
1
1
1
1
1
1
1
1
1
1
1
1
1
1
1
1
1
1
1
1
1
1
1
1
1
1
1
1
1
1
1
1
1
1
1
1
1
1
1
1
1
1
1
1
1.000000e-04
1.000000e-04
1.000000e-04
1.000000e-04
1.000000e-04
1.000000e-04
1.000000e-04
1.000000e-04
1.000000e-04
1.000000e-04
1.000000e-04
1
1
1
1
1
1
1
1
1
1
1
1
1
1
1
1
1
1
1
1
1
1
1
1
1
1
1
1
1
1
1
1
1
1
1
1
1
1
1
1
1
1
1
1
1
1
1
1
1
1
1
1
1
1
1
1
1
1
1
1
1
1
1
1
1
1
1
1
1
1
1
1
1
1
1
1
1
1
1
1
1
1
1
1
1
1
1
1
1.000000e-04
1.000000e-04
1.000000e-04
1.000000e-04
1.000000e-04
1.000000e-04
1.000000e-04
1.000000e-04
1.000000e-04
1.000000e-04
1.000000e-04
1
1
1
1
1
1
1
1
1
1
1
1
1
1
1
1
1
1
1
1
1
1
1
1
1
1
1
1
1
1
1
1
1
1
1
1
1
1
1
1
1
1
1
1
1
1
1
1
1
1
1
1
1
1
1
1
1
1
1
1
1
1
1
1
1
1
1
1
1
1
1
1
1
1
1
1
1
1
1
1
1
1
1
1
1
1
1
1
1.000000e-04
1.000000e-04
1.000000e-04
1.000000e-04
1.000000e-04
1.000000e-04
1.000000e-04
1.000000e-04
1.000000e-04
1.000000e-04
1.000000e-04
1
1
1
1
1
1
1
1
1
1
1
1
1
1
1
1
1
1
1
1
1
1
1
1
1
1
1
1
1
1
1
1
1
1
1
1
1
1
1
1
1
1
1
1
1
1
1
1
1
1
1
1
1
1
1
1
1
1
1
1
1
1
1
1
1
1
1
1
1
1
1
1
1
1
1
1
1
1
1
1
1
1
1
1
1
1
1
1
1.000000e-04
1.000000e-04
1.000000e-04
1.000000e-04
1.000000e-04
1.000000e-04
1.000000e-04
1.000000e-04
1.000000e-04
1.000000e-04
1.000000e-04
1
1
1
1
1
1
1
1
1
1
1
1
1
1
1
1
1
1
1
1
1
1
1
1
1
1
1
1
1
1
1
1
1
1
1
1
1
1
1
1
1
1
1
1
1
1
1
1
1
1
1
1
1
1
1
1
1
1
1
1
1
1
1
1
1
1
1
1
1
1
1
1
1
1
1
1
1
1
1
1
1
1
1
1
1
1
1
1
1.000000e-04
1.000000e-04
1.000000e-04
1.000000e-04
1.000000e-04
1.000000e-04
1.000000e-04
1.000000e-04
1.000000e-04
1.000000e-04
1.000000e-04
1
1
1
1
1
1
1
1
1
1
1
1
1
1
1
1
1
1
1
1
1
1
1
1
1
1
1
1
1
1
1
1
1
1
1
1
1
1
1
1
1
1
1
1
1
1
1
1
1
1
1
1
1
1
1
1
1
1
1
1
1
1
1
1
1
1
1
1
1
1
1
1
1
1
1
1
1
1
1
1
1
1
1
1
1
1
1
1
1.000000e-04
1.000000e-04
1.000000e-04
1.000000e-04
1.000000e-04
1.000000e-04
1.000000e-04
1.000000e-04
1.000000e-04
1.000000e-04
1.000000e-04
1
1
1
1
1
1
1
1
1
1
1
1
1
1
1
1
1
1
1
1
1
1
1
1
1
1
1
1
1
1
1
1
1
1
1
1
1
1
1
1
1
1
1
1
1
1
1
1
1
1
1
1
1
1
1
1
1
1
1
1
1
1
1
1
1
1
1
1
1
1
1
1
1
1
1
1
1
1
1
1
1
1
1
1
1
1
1
1
1.000000e-04
1.000000e-04
1.000000e-04
1.000000e-04
1.000000e-04
1.000000e-04
1.000000e-04
1.000000e-04
1.000000e-04
1.000000e-04
1.000000e-04
1
1
1
1
1
1
1
1
1
1
1
1
1
1
1
1
1
1
1
1
1
1
1
1
1
1
1
1
1
1
1
1
1
1
1
1
1
1
1
1
1
1
1
1
1
1
1
1
1
1
1
1
1
1
1
1
1
1
1
1
1
1
1
1
1
1
1
1
1
1
1
1
1
1
1
1
1
1
1
1
1
1
1
1
1
1
1
1
1.000000e-04
1.000000e-04
1.000000e-04
1.000000e-04
1.000000e-04
1.000000e-04
1.000000e-04
1.000000e-04
1.000000e-04
1.000000e-04
1.000000e-04
1
1
1
1
1
1
1
1
1
1
1
1
1
1
1
1
1
1
1
1
1
1
1
1
1
1
1
1
1
1
1
1
1
1
1
1
1
1
1
1
1
1
1
1
1
1
1
1
1
1
1
1
1
1
1
1
1
1
1
1
1
1
1
1
1
1
1
1
1
1
1
1
1
1
1
1
1
1
1
1
1
1
1
1
1
1
1
1
1.000000e-04
1.000000e-04
1.000000e-04
1.000000e-04
1.000000e-04
1.000000e-04
1.000000e-04
1.000000e-04
1.000000e-04
1.000000e-04
1.000000e-04
1
1
1
1
1
1
1
1
1
1
1
1
1
1
1
1
1
1
1
1
1
1
1
1
1
1
1
1
1
1
1
1
1
1
1
1
1
1
1
1
1
1
1
1
1
1
1
1
1
1
1
1
1
1
1
1
1
1
1
1
1
1
1
1
1
1
1
1
1
1
1
1
1
1
1
1
1
1
1
1
1
1
1
1
1
1
1
1
1.000000e-04
1.000000e-04
1.000000e-04
1.000000e-04
1.000000e-04
1.000000e-04
1.000000e-04
1.000000e-04
1.000000e-04
1.000000e-04
1.000000e-04
1
1
1
1
1
1
1
1
1
1
1
1
1
1
1
1
1
1
1
1
1
1
1
1
1
1
1
1
1
1
1
1
1
1
1
1
1
1
1
1
1
1
1
1
1
1
1
1
1
1
1
1
1
1
1
1
1
1
1
1
1
1
1
1
1
1
1
1
1
1
1
1
1
1
1
1
1
1
1
1
1
1
1
1
1
1
1
1
1.000000e-04
1.000000e-04
1.000000e-04
1.000000e-04
1.000000e-04
1.000000e-04
1.000000e-04
1.000000e-04
1.000000e-04
1.000000e-04
1.000000e-04
1
1
1
1
1
1
1
1
1
1
1
1
1
1
1
1
1
1
1
1
1
1
1
1
1
1
1
1
1
1
1
1
1
1
1
1
1
1
1
1
1
1
1
1
1
1
1
1
1
1
1
1
1
1
1
1
1
1
1
1
1
1
1
1
1
1
1
1
1
1
1
1
1
1
1
1
1
1
1
1
1
1
1
1
1
1
1
1
1.000000e-04
1.000000e-04
1.000000e-04
1.000000e-04
1.000000e-04
1.000000e-04
1.000000e-04
1.000000e-04
1.000000e-04
1.000000e-04
1.000000e-04
1
1
1
1
1
1
1
1
1
1
1
1
1
1
1
1
1
1
1
1
1
1
1
1
1
1
1
1
1
1
1
1
1
1
1
1
1
1
1
1
1
1
1
1
1
1
1
1
1
1
1
1
1
1
1
1
1
1
1
1
1
1
1
1
1
1
1
1
1
1
1
1
1
1
1
1
1
1
1
1
1
1
1
1
1
1
1
1
1.000000e-04
1.000000e-04
1.000000e-04
1.000000e-04
1.000000e-04
1.000000e-04
1.000000e-04
1.000000e-04
1.000000e-04
1.000000e-04
1.000000e-04
1
1
1
1
1
1
1
1
1
1
1
1
1
1
1
1
1
1
1
1
1
1
1
1
1
1
1
1
1
1
1
1
1
1
1
1
1
1
1
1
1
1
1
1
1
1
1
1
1
1
1
1
1
1
1
1
1
1
1
1
1
1
1
1
1
1
1
1
1
1
1
1
1
1
1
1
1
1
1
1
1
1
1
1
1
1
1
1
1.000000e-04
1.000000e-04
1.000000e-04
1.000000e-04
1.000000e-04
1.000000e-04
1.000000e-04
1.000000e-04
1.000000e-04
1.000000e-04
1.000000e-04
1
1
1
1
1
1
1
1
1
1
1
1
1
1
1
1
1
1
1
1
1
1
1
1
1
1
1
1
1
1
1
1
1
1
1
1
1
1
1
1
1
1
1
1
1
1
1
1
1
1
1
1
1
1
1
1
1
1
1
1
1
1
1
1
1
1
1
1
1
1
1
1
1
1
1
1
1
1
1
1
1
1
1
1
1
1
1
1
1.000000e-04
1.000000e-04
1.000000e-04
1.000000e-04
1.000000e-04
1.000000e-04
1.000000e-04
1.000000e-04
1.000000e-04
1.000000e-04
1.000000e-04
1
1
1
1
1
1
1
1
1
1
1
1
1
1
1
1
1
1
1
1
1
1
1
1
1
1
1
1
1
1
1
1
1
1
1
1
1
1
1
1
1
1
1
1
1
1
1
1
1
1
1
1
1
1
1
1
1
1
1
1
1
1
1
1
1
1
1
1
1
1
1
1
1
1
1
1
1
1
1
1
1
1
1
1
1
1
1
1
1.000000e-04
1.000000e-04
1.000000e-04
1.000000e-04
1.000000e-04
1.000000e-04
1.000000e-04
1.000000e-04
1.000000e-04
1.000000e-04
1.000000e-04
1
1
1
1
1
1
1
1
1
1
1
1
1
1
1
1
1
1
1
1
1
1
1
1
1
1
1
1
1
1
1
1
1
1
1
1
1
1
1
1
1
1
1
1
1
1
1
1
1
1
1
1
1
1
1
1
1
1
1
1
1
1
1
1
1
1
1
1
1
1
1
1
1
1
1
1
1
1
1
1
1
1
1
1
1
1
1
1
1.000000e-04
1.000000e-04
1.000000e-04
1.000000e-04
1.000000e-04
1.000000e-04
1.000000e-04
1.000000e-04
1.000000e-04
1.000000e-04
1.000000e-04
1
1
1
1
1
1
1
1
1
1
1
1
1
1
1
1
1
1
1
1
1
1
1
1
1
1
1
1
1
1
1
1
1
1
1
1
1
1
1
1
1
1
1
1
1
1
1
1
1
1
1
1
1
1
1
1
1
1
1
1
1
1
1
1
1
1
1
1
1
1
1
1
1
1
1
1
1
1
1
1
1
1
1
1
1
1
1
1
1.000000e-04
1.000000e-04
1.000000e-04
1.000000e-04
1.000000e-04
1.000000e-04
1.000000e-04
1.000000e-04
1.000000e-04
1.000000e-04
1.000000e-04
1
1
1
1
1
1
1
1
1
1
1
1
1
1
1
1
1
1
1
1
1
1
1
1
1
1
1
1
1
1
1
1
1
1
1
1
1
1
1
1
1
1
1
1
1
1
1
1
1
1
1
1
1
1
1
1
1
1
1
1
1
1
1
1
1
1
1
1
1
1
1
1
1
1
1
1
1
1
1
1
1
1
1
1
1
1
1
1
1.000000e-04
1.000000e-04
1.000000e-04
1.000000e-04
1.000000e-04
1.000000e-04
1.000000e-04
1.000000e-04
1.000000e-04
1.000000e-04
1.000000e-04
1
1
1
1
1
1
1
1
1
1
1
1
1
1
1
1
1
1
1
1
1
1
1
1
1
1
1
1
1
1
1
1
1
1
1
1
1
1
1
1
1
1
1
1
1
1
1
1
1
1
1
1
1
1
1
1
1
1
1
1
1
1
1
1
1
1
1
1
1
1
1
1
1
1
1
1
1
1
1
1
1
1
1
1
1
1
1
1
1.000000e-04
1.000000e-04
1.000000e-04
1.000000e-04
1.000000e-04
1.000000e-04
1.000000e-04
1.000000e-04
1.000000e-04
1.000000e-04
1.000000e-04
1
1
1
1
1
1
1
1
1
1
1
1
1
1
1
1
1
1
1
1
1
1
1
1
1
1
1
1
1
1
1
1
1
1
1
1
1
1
1
1
1
1
1
1
1
1
1
1
1
1
1
1
1
1
1
1
1
1
1
1
1
1
1
1
1
1
1
1
1
1
1
1
1
1
1
1
1
1
1
1
1
1
1
1
1
1
1
1
1.000000e-04
1.000000e-04
1.000000e-04
1.000000e-04
1.000000e-04
1.000000e-04
1.000000e-04
1.000000e-04
1.000000e-04
1.000000e-04
1.000000e-04
1
1
1
1
1
1
1
1
1
1
1
1
1
1
1
1
1
1
1
1
1
1
1
1
1
1
1
1
1
1
1
1
1
1
1
1
1
1
1
1
1
1
1
1
1
1
1
1
1
1
1
1
1
1
1
1
1
1
1
1
1
1
1
1
1
1
1
1
1
1
1
1
1
1
1
1
1
1
1
1
1
1
1
1
1
1
1
1
1.000000e-04
1.000000e-04
1.000000e-04
1.000000e-04
1.000000e-04
1.000000e-04
1.000000e-04
1.000000e-04
1.000000e-04
1.000000e-04
1.000000e-04
1
1
1
1
1
1
1
1
1
1
1
1
1
1
1
1
1
1
1
1
1
1
1
1
1
1
1
1
1
1
1
1
1
1
1
1
1
1
1
1
1
1
1
1
1
1
1
1
1
1
1
1
1
1
1
1
1
1
1
1
1
1
1
1
1
1
1
1
1
1
1
1
1
1
1
1
1
1
1
1
1
1
1
1
1
1
1
1
1.000000e-04
1.000000e-04
1.000000e-04
1.000000e-04
1.000000e-04
1.000000e-04
1.000000e-04
1.000000e-04
1.000000e-04
1.000000e-04
1.000000e-04
1
1
1
1
1
1
1
1
1
1
1
1
1
1
1
1
1
1
1
1
1
1
1
1
1
1
1
1
1
1
1
1
1
1
1
1
1
1
1
1
1
1
1
1
1
1
1
1
1
1
1
1
1
1
1
1
1
1
1
1
1
1
1
1
1
1
1
1
1
1
1
1
1
1
1
1
1
1
1
1
1
1
1
1
1
1
1
1
1.000000e-04
1.000000e-04
1.000000e-04
1.000000e-04
1.000000e-04
1.000000e-04
1.000000e-04
1.000000e-04
1.000000e-04
1.000000e-04
1.000000e-04
1
1
1
1
1
1
1
1
1
1
1
1
1
1
1
1
1
1
1
1
1
1
1
1
1
1
1
1
1
1
1
1
1
1
1
1
1
1
1
1
1
1
1
1
1
1
1
1
1
1
1
1
1
1
1
1
1
1
1
1
1
1
1
1
1
1
1
1
1
1
1
1
1
1
1
1
1
1
1
1
1
1
1
1
1
1
1
1
1.000000e-04
1.000000e-04
1.000000e-04
1.000000e-04
1.000000e-04
1.000000e-04
1.000000e-04
1.000000e-04
1.000000e-04
1.000000e-04
1.000000e-04
1
1
1
1
1
1
1
1
1
1
1
1
1
1
1
1
1
1
1
1
1
1
1
1
1
1
1
1
1
1
1
1
1
1
1
1
1
1
1
1
1
1
1
1
1
1
1
1
1
1
1
1
1
1
1
1
1
1
1
1
1
1
1
1
1
1
1
1
1
1
1
1
1
1
1
1
1
1
1
1
1
1
1
1
1
1
1
1
1.000000e-04
1.000000e-04
1.000000e-04
1.000000e-04
1.000000e-04
1.000000e-04
1.000000e-04
1.000000e-04
1.000000e-04
1.000000e-04
1.000000e-04
1
1
1
1
1
1
1
1
1
1
1
1
1
1
1
1
1
1
1
1
1
1
1
1
1
1
1
1
1
1
1
1
1
1
1
1
1
1
1
1
1
1
1
1
1
1
1
1
1
1
1
1
1
1
1
1
1
1
1
1
1
1
1
1
1
1
1
1
1
1
1
1
1
1
1
1
1
1
1
1
1
1
1
1
1
1
1
1
1.000000e-04
1.000000e-04
1.000000e-04
1.000000e-04
1.000000e-04
1.000000e-04
1.000000e-04
1.000000e-04
1.000000e-04
1.000000e-04
1.000000e-04
1
1
1
1
1
1
1
1
1
1
1
1
1
1
1
1
1
1
1
1
1
1
1
1
1
1
1
1
1
1
1
1
1
1
1
1
1
1
1
1
1
1
1
1
1
1
1
1
1
1
1
1
1
1
1
1
1
1
1
1
1
1
1
1
1
1
1
1
1
1
1
1
1
1
1
1
1
1
1
1
1
1
1
1
1
1
1
1
1.000000e-04
1.000000e-04
1.000000e-04
1.000000e-04
1.000000e-04
1.000000e-04
1.000000e-04
1.000000e-04
1.000000e-04
1.000000e-04
1.000000e-04
1
1
1
1
1
1
1
1
1
1
1
1
1
1
1
1
1
1
1
1
1
1
1
1
1
1
1
1
1
1
1
1
1
1
1
1
1
1
1
1
1
1
1
1
1
1
1
1
1
1
1
1
1
1
1
1
1
1
1
1
1
1
1
1
1
1
1
1
1
1
1
1
1
1
1
1
1
1
1
1
1
1
1
1
1
1
1
1
1.000000e-04
1.000000e-04
1.000000e-04
1.000000e-04
1.000000e-04
1.000000e-04
1.000000e-04
1.000000e-04
1.000000e-04
1.000000e-04
1.000000e-04
1
1
1
1
1
1
1
1
1
1
1
1
1
1
1
1
1
1
1
1
1
1
1
1
1
1
1
1
1
1
1
1
1
1
1
1
1
1
1
1
1
1
1
1
1
1
1
1
1
1
1
1
1
1
1
1
1
1
1
1
1
1
1
1
1
1
1
1
1
1
1
1
1
1
1
1
1
1
1
1
1
1
1
1
1
1
1
1
1
1
1
1
1
1
1
1
1
1
1
1
1
1
1
1
1
1
1
1
1
1
1
1
1
1
1
1
1
1
1
1
1
1
1
1
1
1
1
1
1
1
1
1
1
1
1
1
1
1
1
1
1
1
1
1
1
1
1
1
1
1
1
1
1
1
1
1
1
1
1
1
1
1
1
1
1
1
1
1
1
1
1
1
1
1
1
1
1
1
1
1
1
1
1
1
1
1
1
1
1
1
1
1
1
1
1
1
1
1
1
1
1
1
1
1
1
1
1
1
1
1
1
1
1
1
1
1
1
1
1
1
1
1
1
1
1
1
1
1
1
1
1
1
1
1
1
1
1
1
1
1
1
1
1
1
1
1
1
1
1
1
1
1
1
1
1
1
1
1
1
1
1
1
1
1
1
1
1
1
1
1
1
1
1
1
1
1
1
1
1
1
1
1
1
1
1
1
1
1
1
1
1
1
1
1
1
1
1
1
1
1
1
1
1
1
1
1
1
1
1
1
1
1
1
1
1
1
1
1
1
1
1
1
1
1
1
1
1
1
1
1
1
1
1
1
1
1
1
1
1
1
1
1
1
1
1
1
1
1
1
1
1
1
1
1
1
1
1
1
1
1
1
1
1
1
1
1
1
1
1
1
1
1
1
1
1
1
1
1
1
1
1
1
1
1
1
1
1
1
1
1
1
1
1
1
1
1
1
1
1
1
1
1
1
1
1
1
1
1
1
1
1
1
1
1
1
1
1
1
1
1
1
1
1
1
1
1
1
1
1
1
1
1
1
1
1
1
1
1
1
1
1
1
1
1
1
1
1
1
1
1
1
1
1
1
1
1
1
1
1
1
1
1
1
1
1
1
1
1
1
1
1
1
1
1
1
1
1
1
1
1
1
1
1
1
1
1
1
1
1
1
1
1
1
1
1
1
1
1
1
1
1
1
1
1
1
1
1
1
1
1
1
1
1
1
1
1
1
1
1
1
1
1
1
1
1
1
1
1
1
1
1
1
1
1
1
1
1
1
1
1
1
1
1
1
1
1
1
1
1
1
1
1
1
1
1
1
1
1
1
1
1
1
1
1
1
1
1
1
1
1
1
1
1
1
1
1
1
1
1
1
1
1
1
1
1
1
1
1
1
1
1
1
1
1
1
1
1
1
1
1
1
1
1
1
1
1
1
1
1
1
1
1
1
1
1
1
1
1
1
1
1
1
1
1
1
1
1
1
1
1
1
1
1
1
1
1
1
1
1
1
1
1
1
1
1
1
1
1
1
1
1
1
1
1
1
1
1
1
1
1
1
1
1
1
1
1
1
1
1
1
1
1
1
1
1
1
1
1
1
1
1
1
1
1
1
1
1
1
1
1
1
1
1
1
1
1
1
1
1
1
1
1
1
1
1
1
1
1
1
1
1
1
1
1
1
1
1
1
1
1
1
1
1
1
1
1
1
1
1
1
1
1
1
1
1
1
1
1
1
1
1
1
1
1
1
1
1
1
1
1
1
1
1
1
1
1
1
1
1
1
1
1
1
1
1
1
1
1
1
1
1
1
1
1
1
1
1
1
1
1
1
1
1
1
1
1
1
1
1
1
1
1
1
1
1
1
1
1
1
1
1
1
1
1
1
1
1
1
1
1
1
1
1
1
1
1
1
1
1
1
1
1
1
1
1
1
1
1
1
1
1
1
1
1
1
1
1
1
1
1
1
1
1
1
1
1
1
1
1
1
1
1
1
1
1
1
1
1
1
1
1
1
1
1
1
1
1
1
1
1
1
1
1
1
1
1
1
1
1
1
1
1
1
1
1
1
1
1
1
1
1
1
1
1
1
1
1
1
1
1
1
1
1
1
1
1
1
1
1
1
1
1
1
1
1
1
1
1
1
1
1
1
1
1
1
1
1
1
1
1
1
1
1
1
1
1
1
1
1
1
1
1
1
1
1
1
1
1
1
1
1
1
1
1
1
1
1
1
1
1
1
1
1
1
1
1
1
1
1
1
1
1
1
1
1
1
1
1
1
1
1
1
1
1
1
1
1
1
1
1
1
1
1
1
1
1
1
1
1
1
1
1
1
1
1
1
1
1
1
1
1
1
1
1
1
1
1
1
1
1
1
1
1
1
1
1
1
1
1
1
1
1
1
1
1
1
1
1
1
1
1
1
1
1
1
1
1
1
1
1
1
1
1
1
1
1
1
1
1
1
1
1
1
1
1
1
1
1
1
1
1
1
1
1
1
1
1
1
1
1
1
1
1
1
1
1
1
1
1
1
1
1
1
1
1
1
1
1
1
1
1
1
1
1
1
1
1
1
1
1
1
1
1
1
1
1
1
1
1
1
1
1
1
1
1
1
1
1
1
1
1
1
1
1
1
1
1
1
1
1
1
1
1
1
1
1
1
1
1
1
1
1
1
1
1
1
1
1
1
1
1
1
1
1
1
1
1
1
1
1
1
1
1
1
1
1
1
1
1
1
1
1
1
1
1
1
1
1
1
1
1
1
1
1
1
1
1
1
1
1
1
1
1
1
1
1
1
1
1
1
1
1
1
1
1
1
1
1
1
1
1
1
1
1
1
1
1
1
1
1
1
1
1
1
1
1
1
1
1
1
1
1
1
1
1
1
1
1
1
1
1
1
1
1
1
1
1
1
1
1
1
1
1
1
1
1
1
1
1
1
1
1
1
1
1
1
1
1
1
1
1
1
1
1
1
1
1
1
1
1
1
1
1
1
1
1
1
1
1
1
1
1
1
1
1
1
1
1
1
1
1
1
1
1
1
1
1
1
1
1
1
1
1
1
1
1
1
1
1
1
1
1
1
1
1
1
1
1
1
1
1
1
1
1
1
1
1
1
1
1
1
1
1
1
1
1
1
1
1
1
1
1
1
1
1
1
1
1
1
1
1
1
1
1
1
1
1
1
1
1
1
1
1
1
1
1
1
1
1
1
1
1
1
1
1
1
1
1
1
1
1
1
1
1
1
1
1
1
1
1
1
1
1
1
1
1
1
1
1
1
1
1
1
1
1
1
1
1
1
1
1
1
1
1
1
1
1
1
1
1
1
1
1
1
1
1
1
1
1
1
1
1
1
1
1
1
1
1
1
1
1
1
1
1
1
1
1
1
1
1
1
1
1
1
1
1
1
1
1
1
1
1
1
1
1
1
1
1
1
1
1
1
1
1
1
1
1
1
1
1
1
1
1
1
1
1
1
1
1
1
1
1
1
1
1
1
1
1
1
1
1
1
1
1
1
1
1
1
1
1
1
1
1
1
1
1
1
1
1
1
1
1
1
1
1
1
1
1
1
1
1
1
1
1
1
1
1
1
1
1
1
1
1
1
1
1
1
1
1
1
1
1
1
1
1
1
1
1
1
1
1
1
1
1
1
1
1
1
1
1
1
1
1
1
1
1
1
1
1
1
1
1
1
1
1
1
1
1
1
1
1
1
1
1
1
1
1
1
1
1
1
1
1
1
1
1
1
1
1
1
1
1
1
1
1
1
1
1
1
1
1
1
1
1
1
1
1
1
1
1
1
1
1
1
1
1
1
1
1
1
1
1
1
1
1
1
1
1
1
1
1
1
1
1
1
1
1
1
1
1
1
1
1
1
1
1
1
1
1
1
1
1
1
1
1
1
1
1
1
1
1
1
1
1
1
1
1
1
1
1
1
1
1
1
1
1
1
1
1
1
1
1
1
1
1
1
1
1
1
1
1
1
1
1
1
1
1
1
1
1
1
1
1
1
1
1
1
1
1
1
1
1
1
1
1
1
1
1
1
1
1
1
1
1
1
1
1
1
1
1
1
1
1
1
1
1
1
1
1
1
1
1
1
1
1
1
1
1
1
1
1
1
1
1
1
1
1
1
1
1
1
1
1
1
1
1
1
1
1
1
1
1
1
1
1
1
1
1
1
1
1
1
1
1
1
1
1
1
1
1
1
1
1
1
1
1
1
1
1
1
1
1
1
1
1
1
1
1
1
1
1
1
1
1
1
1
1
1
1
1
1
1
1
1
1
1
1
1
1
1
1
1
1
1
1
1
1
1
1
1
1
1
1
1
1
1
1
1
1
1
1
1
1
1
1
1
1
1
1
1
1.000000e-04
1.000000e-04
1.000000e-04
1.000000e-04
1.000000e-04
1.000000e-04
1.000000e-04
1.000000e-04
1.000000e-04
1.000000e-04
1.000000e-04
1.000000e-04
1.000000e-04
1.000000e-04
1.000000e-04
1.000000e-04
1.000000e-04
1.000000e-04
1.000000e-04
1.000000e-04
1.000000e-04
1.000000e-04
1.000000e-04
1.000000e-04
1.000000e-04
1.000000e-04
1.000000e-04
1.000000e-04
1.000000e-04
1.000000e-04
1.000000e-04
1.000000e-04
1.000000e-04
1.000000e-04
1.000000e-04
1.000000e-04
1.000000e-04
1.000000e-04
1.000000e-04
1.000000e-04
1.000000e-04
1.000000e-04
1.000000e-04
1.000000e-04
1.000000e-04
1.000000e-04
1.000000e-04
1.000000e-04
1.000000e-04
1.000000e-04
1
1
1
1
1
1
1
1
1
1
1
1
1
1
1
1
1
1
1
1
1
1
1
1
1
1
1
1
1
1
1
1
1
1
1
1
1
1
1
1
1
1
1
1
1
1
1
1
1
1.000000e-04
1.000000e-04
1.000000e-04
1.000000e-04
1.000000e-04
1.000000e-04
1.000000e-04
1.000000e-04
1.000000e-04
1.000000e-04
1.000000e-04
1.000000e-04
1.000000e-04
1.000000e-04
1.000000e-04
1.000000e-04
1.000000e-04
1.000000e-04
1.000000e-04
1.000000e-04
1.000000e-04
1.000000e-04
1.000000e-04
1.000000e-04
1.000000e-04
1.000000e-04
1.000000e-04
1.000000e-04
1.000000e-04
1.000000e-04
1.000000e-04
1.000000e-04
1.000000e-04
1.000000e-04
1.000000e-04
1.000000e-04
1.000000e-04
1.000000e-04
1.000000e-04
1.000000e-04
1.000000e-04
1.000000e-04
1.000000e-04
1.000000e-04
1.000000e-04
1.000000e-04
1.000000e-04
1.000000e-04
1.000000e-04
1.000000e-04
1
1
1
1
1
1
1
1
1
1
1
1
1
1
1
1
1
1
1
1
1
1
1
1
1
1
1
1
1
1
1
1
1
1
1
1
1
1
1
1
1
1
1
1
1
1
1
1
1
1.000000e-04
1.000000e-04
1.000000e-04
1.000000e-04
1.000000e-04
1.000000e-04
1.000000e-04
1.000000e-04
1.000000e-04
1.000000e-04
1.000000e-04
1.000000e-04
1.000000e-04
1.000000e-04
1.000000e-04
1.000000e-04
1.000000e-04
1.000000e-04
1.000000e-04
1.000000e-04
1.000000e-04
1.000000e-04
1.000000e-04
1.000000e-04
1.000000e-04
1.000000e-04
1.000000e-04
1.000000e-04
1.000000e-04
1.000000e-04
1.000000e-04
1.000000e-04
1.000000e-04
1.000000e-04
1.000000e-04
1.000000e-04
1.000000e-04
1.000000e-04
1.000000e-04
1.000000e-04
1.000000e-04
1.000000e-04
1.000000e-04
1.000000e-04
1.000000e-04
1.000000e-04
1.000000e-04
1.000000e-04
1.000000e-04
1.000000e-04
1
1
1
1
1
1
1
1
1
1
1
1
1
1
1
1
1
1
1
1
1
1
1
1
1
1
1
1
1
1
1
1
1
1
1
1
1
1
1
1
1
1
1
1
1
1
1
1
1
1.000000e-04
1.000000e-04
1.000000e-04
1.000000e-04
1.000000e-04
1.000000e-04
1.000000e-04
1.000000e-04
1.000000e-04
1.000000e-04
1.000000e-04
1.000000e-04
1.000000e-04
1.000000e-04
1.000000e-04
1.000000e-04
1.000000e-04
1.000000e-04
1.000000e-04
1.000000e-04
1.000000e-04
1.000000e-04
1.000000e-04
1.000000e-04
1.000000e-04
1.000000e-04
1.000000e-04
1.000000e-04
1.000000e-04
1.000000e-04
1.000000e-04
1.000000e-04
1.000000e-04
1.000000e-04
1.000000e-04
1.000000e-04
1.000000e-04
1.000000e-04
1.000000e-04
1.000000e-04
1.000000e-04
1.000000e-04
1.000000e-04
1.000000e-04
1.000000e-04
1.000000e-04
1.000000e-04
1.000000e-04
1.000000e-04
1.000000e-04
1
1
1
1
1
1
1
1
1
1
1
1
1
1
1
1
1
1
1
1
1
1
1
1
1
1
1
1
1
1
1
1
1
1
1
1
1
1
1
1
1
1
1
1
1
1
1
1
1
1.000000e-04
1.000000e-04
1.000000e-04
1.000000e-04
1.000000e-04
1.000000e-04
1.000000e-04
1.000000e-04
1.000000e-04
1.000000e-04
1.000000e-04
1.000000e-04
1.000000e-04
1.000000e-04
1.000000e-04
1.000000e-04
1.000000e-04
1.000000e-04
1.000000e-04
1.000000e-04
1.000000e-04
1.000000e-04
1.000000e-04
1.000000e-04
1.000000e-04
1.000000e-04
1.000000e-04
1.000000e-04
1.000000e-04
1.000000e-04
1.000000e-04
1.000000e-04
1.000000e-04
1.000000e-04
1.000000e-04
1.000000e-04
1.000000e-04
1.000000e-04
1.000000e-04
1.000000e-04
1.000000e-04
1.000000e-04
1.000000e-04
1.000000e-04
1.000000e-04
1.000000e-04
1.000000e-04
1.000000e-04
1.000000e-04
1.000000e-04
1
1
1
1
1
1
1
1
1
1
1
1
1
1
1
1
1
1
1
1
1
1
1
1
1
1
1
1
1
1
1
1
1
1
1
1
1
1
1
1
1
1
1
1
1
1
1
1
1
1.000000e-04
1.000000e-04
1.000000e-04
1.000000e-04
1.000000e-04
1.000000e-04
1.000000e-04
1.000000e-04
1.000000e-04
1.000000e-04
1.000000e-04
1.000000e-04
1.000000e-04
1.000000e-04
1.000000e-04
1.000000e-04
1.000000e-04
1.000000e-04
1.000000e-04
1.000000e-04
1.000000e-04
1.000000e-04
1.000000e-04
1.000000e-04
1.000000e-04
1.000000e-04
1.000000e-04
1.000000e-04
1.000000e-04
1.000000e-04
1.000000e-04
1.000000e-04
1.000000e-04
1.000000e-04
1.000000e-04
1.000000e-04
1.000000e-04
1.000000e-04
1.000000e-04
1.000000e-04
1.000000e-04
1.000000e-04
1.000000e-04
1.000000e-04
1.000000e-04
1.000000e-04
1.000000e-04
1.000000e-04
1.000000e-04
1.000000e-04
1
1
1
1
1
1
1
1
1
1
1
1
1
1
1
1
1
1
1
1
1
1
1
1
1
1
1
1
1
1
1
1
1
1
1
1
1
1
1
1
1
1
1
1
1
1
1
1
1
1.000000e-04
1.000000e-04
1.000000e-04
1.000000e-04
1.000000e-04
1.000000e-04
1.000000e-04
1.000000e-04
1.000000e-04
1.000000e-04
1.000000e-04
1.000000e-04
1.000000e-04
1.000000e-04
1.000000e-04
1.000000e-04
1.000000e-04
1.000000e-04
1.000000e-04
1.000000e-04
1.000000e-04
1.000000e-04
1.000000e-04
1.000000e-04
1.000000e-04
1.000000e-04
1.000000e-04
1.000000e-04
1.000000e-04
1.000000e-04
1.000000e-04
1.000000e-04
1.000000e-04
1.000000e-04
1.000000e-04
1.000000e-04
1.000000e-04
1.000000e-04
1.000000e-04
1.000000e-04
1.000000e-04
1.000000e-04
1.000000e-04
1.000000e-04
1.000000e-04
1.000000e-04
1.000000e-04
1.000000e-04
1.000000e-04
1.000000e-04
1
1
1
1
1
1
1
1
1
1
1
1
1
1
1
1
1
1
1
1
1
1
1
1
1
1
1
1
1
1
1
1
1
1
1
1
1
1
1
1
1
1
1
1
1
1
1
1
1
1.000000e-04
1.000000e-04
1.000000e-04
1.000000e-04
1.000000e-04
1.000000e-04
1.000000e-04
1.000000e-04
1.000000e-04
1.000000e-04
1.000000e-04
1.000000e-04
1.000000e-04
1.000000e-04
1.000000e-04
1.000000e-04
1.000000e-04
1.000000e-04
1.000000e-04
1.000000e-04
1.000000e-04
1.000000e-04
1.000000e-04
1.000000e-04
1.000000e-04
1.000000e-04
1.000000e-04
1.000000e-04
1.000000e-04
1.000000e-04
1.000000e-04
1.000000e-04
1.000000e-04
1.000000e-04
1.000000e-04
1.000000e-04
1.000000e-04
1.000000e-04
1.000000e-04
1.000000e-04
1.000000e-04
1.000000e-04
1.000000e-04
1.000000e-04
1.000000e-04
1.000000e-04
1.000000e-04
1.000000e-04
1.000000e-04
1.000000e-04
1
1
1
1
1
1
1
1
1
1
1
1
1
1
1
1
1
1
1
1
1
1
1
1
1
1
1
1
1
1
1
1
1
1
1
1
1
1
1
1
1
1
1
1
1
1
1
1
1
1.000000e-04
1.000000e-04
1.000000e-04
1.000000e-04
1.000000e-04
1.000000e-04
1.000000e-04
1.000000e-04
1.000000e-04
1.000000e-04
1.000000e-04
1.000000e-04
1.000000e-04
1.000000e-04
1.000000e-04
1.000000e-04
1.000000e-04
1.000000e-04
1.000000e-04
1.000000e-04
1.000000e-04
1.000000e-04
1.000000e-04
1.000000e-04
1.000000e-04
1.000000e-04
1.000000e-04
1.000000e-04
1.000000e-04
1.000000e-04
1.000000e-04
1.000000e-04
1.000000e-04
1.000000e-04
1.000000e-04
1.000000e-04
1.000000e-04
1.000000e-04
1.000000e-04
1.000000e-04
1.000000e-04
1.000000e-04
1.000000e-04
1.000000e-04
1.000000e-04
1.000000e-04
1.000000e-04
1.000000e-04
1.000000e-04
1.000000e-04
1
1
1
1
1
1
1
1
1
1
1
1
1
1
1
1
1
1
1
1
1
1
1
1
1
1
1
1
1
1
1
1
1
1
1
1
1
1
1
1
1
1
1
1
1
1
1
1
1
1.000000e-04
1.000000e-04
1.000000e-04
1.000000e-04
1.000000e-04
1.000000e-04
1.000000e-04
1.000000e-04
1.000000e-04
1.000000e-04
1.000000e-04
1.000000e-04
1.000000e-04
1.000000e-04
1.000000e-04
1.000000e-04
1.000000e-04
1.000000e-04
1.000000e-04
1.000000e-04
1.000000e-04
1.000000e-04
1.000000e-04
1.000000e-04
1.000000e-04
1.000000e-04
1.000000e-04
1.000000e-04
1.000000e-04
1.000000e-04
1.000000e-04
1.000000e-04
1.000000e-04
1.000000e-04
1.000000e-04
1.000000e-04
1.000000e-04
1.000000e-04
1.000000e-04
1.000000e-04
1.000000e-04
1.000000e-04
1.000000e-04
1.000000e-04
1.000000e-04
1.000000e-04
1.000000e-04
1.000000e-04
1.000000e-04
1.000000e-04
1
1
1
1
1
1
1
1
1
1
1
1
1
1
1
1
1
1
1
1
1
1
1
1
1
1
1
1
1
1
1
1
1
1
1
1
1
1
1
1
1
1
1
1
1
1
1
1
1
1.000000e-04
1.000000e-04
1.000000e-04
1.000000e-04
1.000000e-04
1.000000e-04
1.000000e-04
1.000000e-04
1.000000e-04
1.000000e-04
1.000000e-04
1.000000e-04
1.000000e-04
1.000000e-04
1.000000e-04
1.000000e-04
1.000000e-04
1.000000e-04
1.000000e-04
1.000000e-04
1.000000e-04
1.000000e-04
1.000000e-04
1.000000e-04
1.000000e-04
1.000000e-04
1.000000e-04
1.000000e-04
1.000000e-04
1.000000e-04
1.000000e-04
1.000000e-04
1.000000e-04
1.000000e-04
1.000000e-04
1.000000e-04
1.000000e-04
1.000000e-04
1.000000e-04
1.000000e-04
1.000000e-04
1.000000e-04
1.000000e-04
1.000000e-04
1.000000e-04
1.000000e-04
1.000000e-04
1.000000e-04
1.000000e-04
1.000000e-04
1
1
1
1
1
1
1
1
1
1
1
1
1
1
1
1
1
1
1
1
1
1
1
1
1
1
1
1
1
1
1
1
1
1
1
1
1
1
1
1
1
1
1
1
1
1
1
1
1
1
1
1
1
1
1
1
1
1
1
1
1
1
1
1
1
1
1
1
1
1
1
1
1
1
1
1
1
1
1
1
1
1
1
1
1
1
1
1
1
1
1
1
1
1
1
1
1
1
1
1
1
1
1
1
1
1
1
1
1
1
1
1
1
1
1
1
1
1
1
1
1
1
1
1
1
1
1
1
1
1
1
1
1
1
1
1
1
1
1
1
1
1
1
1
1
1
1
1
1
1
1
1
1
1
1
1
1
1
1
1
1
1
1
1
1
1
1
1
1
1
1
1
1
1
1
1
1
1
1
1
1
1
1
1
1
1
1
1
1
1
1
1
1
1
1
1
1
1
1
1
1
1
1
1
1
1
1
1
1
1
1
1
1
1
1
1
1
1
1
1
1
1
1
1
1
1
1
1
1
1
1
1
1
1
1
1
1
1
1
1
1
1
1
1
1
1
1
1
1
1
1
1
1
1
1
1
1
1
1
1
1
1
1
1
1
1
1
1
1
1
1
1
1
1
1
1
1
1
1
1
1
1
1
1
1
1
1
1
1
1
1
1
1
1
1
1
1
1
1
1
1
1
1
1
1
1
1
1
1
1
1
1
1
1
1
1
1
1
1
1
1
1
1
1
1
1
1
1
1
1
1
1
1
1
1
1
1
1
1
1
1
1
1
1
1
1
1
1
1
1
1
1
1
1
1
1
1
1
1
1
1
1
1
1
1
1
1
1
1
1
1
1
1
1
1
1
1
1
1
1
1
1
1
1
1
1
1
1
1
1
1
1
1
1
1
1
1
1
1
1
1
1
1
1
1
1
1
1
1
1
1
1
1
1
1
1
1
1
1
1
1
1
1
1
1
1
1
1
1
1
1
1
1
1
1
1
1
1
1
1
1
1
1
1
1
1
1
1
1
1
1
1
1
1
1
1
1
1
1
1
1
1
1
1
1
1
1
1
1
1
1
1
1
1
1
1
1
1
1
1
1
1
1
1
1
1
1
1
1
1
1
1
1
1
1
1
1
1
1
1
1
1
1
1
1
1
1
1
1
1
1
1
1
1
1
1
1
1
1
1
1
1
1
1
1
1
1
1
1
1
1
1
1
1
1
1
1
1
1
1
1
1
1
1
1
1
1
1
1
1
1
1
1
1
1
1
1
1
1
1
1
1
1
1
1
1
1
1
1
1
1
1
1
1
1
1
1
1
1
1
1
1
1
1
1
1
1
1
1
1
1
1
1
1
1
1
1
1
1
1
1
1
1
1
1
1
1
1
1
1
1
1
1
1
1
1
1
1
1
1
1
1
1
1
1
1
1
1
1
1
1
1
1
1
1
1
1
1
1
1
1
1
1
1
1
1
1
1
1
1
1
1
1
1
1
1
1
1
1
1
1
1
1
1
1
1
1
1
1
1
1
1
1
1
1
1
1
1
1
1
1
1
1
1
1
1
1
1
1
1
1
1
1
1
1
1
1
1
1
1
1
1
1
1
1
1
1
1
1
1
1
1
1
1
1
1
1
1
1
1
1
1
1
1
1
1
1
1
1
1
1
1
1
1
1
1
1
1
1
1
1
1
1
1
1
1
1
1
1
1
1
1
1
1
1
1
1
1
1
1
1
1
1
1
1
1
1
1
1
1
1
1
1
1
1
1
1
1
1
1
1
1
1
1
1
1
1
1
1
1
1
1
1
1
1
1
1
1
1
1
1
1
1
1
1
1
1
1
1
1
1
1
1
1
1
1
1
1
1
1
1
1
1
1
1
1
1
1
1
1
1
1
1
1
1
1
1
1
1
1
1
1
1
1
1
1
1
1
1
1
1
1
1
1
1
1
1
1
1
1
1
1
1
1
1
1
1
1
1
1
1
1
1
1
1
1
1
1
1
1
1
1
1
1
1
1
1
1
1
1
1
1
1
1
1
1
1
1
1
1
1
1
1
1
1
1
1
1
1
1
1
1
1
1
1
1
1
1
1
1
1
1
1
1
1
1
1
1
1
1
1
1
1
1
1
1
1
1
1
1
1
1
1
1
1
1
1
1
1
1
1
1
1
1
1
1
1
1
1
1
1
1
1
1
1
1
1
1
1
1
1
1
1
1
1
1
1
1
1
1
1
1
1
1
1
1
1
1
1
1
1
1
1
1
1
1
1
1
1
1
1
1
1
1
1
1
1
1
1
1
1
1
1
1
1
1
1
1
1
1
1
1
1
1
1
1
1
1
1
1
1
1
1
1
1
1
1
1
1
1
1
1
1
1
1
1
1
1
1
1
1
1
1
1
1
1
1
1
1
1
1
1
1
1
1
1
1
1
1
1
1
1
1
1
1
1
1
1
1
1
1
1
1
1
1
1
1
1
1
1
1
1
1
1
1
1
1
1
1
1
1
1
1
1
1
1
1
1
1
1
1
1
1
1
1
1
1
1
1
1
1
1
1
1
1
1
1
1
1
1
1
1
1
1
1
1
1
1
1
1
1
1
1
1
1
1
1
1
1
1
1
1
1
1
1
1
1
1
1
1
1
1
1
1
1
1
1
1
1
1
1
1
1
1
1
1
1
1
1
1
1
1
1
1
1
1
1
1
1
1
1
1
1
1
1
1
1
1
1
1
1
1
1
1
1
1
1
1
1
1
1
1
1
1
1
1
1
1
1
1
1
1
1
1
1
1
1
1
1
1
1
1
1
1
1
1
1
1
1
1
1
1
1
1
1
1
1
1
1
1
1
1
1
1
1
1
1
1
1
1
1
1
1
1
1
1
1
1
1
1
1
1
1
1
1
1
1
1
1
1
1
1
1
1
1
1
1
1
1
1
1
1
1
1
1
1
1
1
1
1
1
1
1
1
1
1
1
1
1
1
1
1
1
1
1
1
1
1
1
1
1
1
1
1
1
1
1
1
1
1
1
1
1
1
1
1
1
1
1
1
1
1
1
1
1
1
1
1
1
1
1
1
1
1
1
1
1
1
1
1
1
1
1
1
1
1
1
1
1
1
1
1
1
1
1
1
1
1
1
1
1
1
1
1
1
1
1
1
1
1
1
1
1
1
1
1
1
1
1
1
1
1
1
1
1
1
1
1
1
1
1
1
1
1
1
1
1
1
1
1
1
1
1
1
1
1
1
1
1
1
1
1
1
1
1
1
1
1
1
1
1
1
1
1
1
1
1
1
1
1
1
1
1
1
1
1
1
1
1
1
1
1
1
1
1
1
1
1
1
1
1
1
1
1
1
1
1
1
1
1
1
1
1
1
1
1
1
1
1
1
1
1
1
1
1
1
1
1
1
1
1
1
1
1
1
1
1
1
1
1
1
1
1
1
1
1
1
1
1
1
1
1
1
1
1
1
1
1
1
1
1
1
1
1
1
1
1
1
1
1
1
1
1
1
1
1
1
1
1
1
1
1
1
1
1
1
1
1
1
1
1
1
1
1
1
1
1
1
1
1
1
1
1
1
1
1
1
1
1
1
1
1
1
1
1
1
1
1
1
1
1
1
1
1
1
1
1
1
1
1
1
1
1
1
1
1
1
1
1
1
1
1
1
1
1
1
1
1
1
1
1
1
1
1
1
1
1
1
1
1
1
1
1
1
1
1
1
1
1
1
1
1
1
1
1
1
1
1
1
1
1
1
1
1
1
1
1
1
1
1
1
1
1
1
1
1
1
1
1
1
1
1
1
1
1
1
1
1
1
1
1
1
1
1
1
1
1
1
1
1
1
1
1
1
1
1
1
1
1
1
1
1
1
1
1
1
1
1
1
1
1
1
1
1
1
1
1
1
1
1
1
1
1
1
1
1
1
1
1
1
1
1
1
1
1
1
1
1
1
1
1
1
1
1
1
1
1
1
1
1
1
1
1
1
1
1
1
1
1
1
1
1
1
1
1
1
1
1
1
1
1
1
1
1
1
1
1
1
1
1
1
1
1
1
1
1
1
1
1
1
1
1
1
1
1
1
1
1
1
1
1
1
1
1
1
1
1
1
1
1
1
1
1
1
1
1
1
1
1
1
1
1
1
1
1
1
1
1
1
1
1
1
1
1
1
1
1
1
1
1
1
1
1
1
1
1
1
1
1
1
1
1
1
1
1
1
1
1
1
1
1
1
1
1
1
1
1
1
1
1
1
1
1
1
1
1
1
1
1
1
1
1
1
1
1
1
1
1
1
1
1
1
1
1
1
1
1
1
1
1
1
1
1
1
1
1
1
1
1
1
1
1
1
1
1
1
1
1
1
1
1
1
1
1
1
1
1
1
1
1
